######################################################################
## PARAM_CARD AUTOMATICALY GENERATED BY MG5 FOLLOWING UFO MODEL   ####
######################################################################
##                                                                  ##
##  Width set on Auto will be computed following the information    ##
##        present in the decay.py files of the model.               ##
##        See  arXiv:1402.1178 for more details.                    ##
##                                                                  ##
######################################################################

###################################
## INFORMATION FOR CKMBLOCK
###################################
Block ckmblock 
    1 2.277360e-01 # cabi 

###################################
## INFORMATION FOR HIGGSPAR
###################################
Block higgspar 
    1 1.000000e+00 # tanbeta 

###################################
## INFORMATION FOR MASS
###################################
Block mass 
    1 5.040000e-03 # MD 
    2 2.550000e-03 # MU 
    3 1.010000e-01 # MS 
    4 1.270000e+00 # MC 
    5 4.700000e+00 # MB 
    6 1.730700e+02 # MT 
    7 1.000000e+03 # Mvlqb 
    8 1.000000e+03 # Mvlqt 
   11 5.110000e-04 # Me 
   13 1.056600e-01 # MMU 
   15 1.777000e+00 # MTA 
   23 9.118760e+01 # MZ 
   24 8.038500e+01 # MW 
   25 1.250000e+02 # MH01 
   35 2.000000e+02 # MH02 
   36 2.500000e+02 # MA0 
   37 2.000000e+02 # MH 
  5000017 1.500000e+02 # Mne 
  5000018 1.500000e+02 # Mnnv 
  6000017 1.500000e+02 # Mnl 
  6000018 1.500000e+02 # Mnv 
## Dependent parameters, given by model restrictions.
## Those values should be edited following the 
## analytical expression. MG5 ignores those values 
## but they are important for interfacing the output of MG5
## to external program such as Pythia.
  12 0.000000e+00 # ve : 0.0 
  14 0.000000e+00 # vm : 0.0 
  16 0.000000e+00 # vt : 0.0 
  21 0.000000e+00 # g : 0.0 
  22 0.000000e+00 # a : 0.0 

###################################
## INFORMATION FOR SMINPUTS
###################################
Block sminputs 
    1 1.279000e+02 # aEWM1 
    2 1.166370e-05 # Gf 
    3 1.184000e-01 # aS (Note that Parameter not used if you use a PDF set) 

###################################
## INFORMATION FOR VLPAR
###################################
Block vlpar 
    1 5.000000e-03 # gzmul 
    2 -5.000000e-03 # gzmur 
    3 2.000000e-03 # gawmu 
    4 0.000000e+00 # gdmzl 
    5 -1.000000e-01 # gdmzr 
    6 1.000000e-01 # gemzl 
    7 0.000000e+00 # gemzr 
    8 3.704540e-01 # gdzr 
    9 3.704540e-01 # gezl 
   10 4.617590e-01 # gdwl 
   11 4.617590e-01 # gewl 
   12 4.617590e-01 # gnwl 
   13 4.617590e-01 # gnnwl 
   14 4.617590e-01 # gnwr 
   15 4.617590e-01 # gnnwr 
   16 0.000000e+00 # gnzl 
   17 0.000000e+00 # ghmu1 
   18 -1.000000e-01 # ghdl1 
   19 -1.000000e-01 # ghdr1 
   20 -1.000000e-01 # ghel1 
   21 -1.000000e-01 # gher1 
   22 0.000000e+00 # gdyuk1 
   23 0.000000e+00 # geyuk1 
   24 0.000000e+00 # gnhr1 
   25 0.000000e+00 # gnyuk1 
   26 0.000000e+00 # ghmu2 
   27 -1.000000e-01 # ghdl2 
   28 -1.000000e-01 # ghdr2 
   29 -1.000000e-01 # ghel2 
   30 -1.000000e-01 # gher2 
   31 0.000000e+00 # gdyuk2 
   32 0.000000e+00 # geyuk2 
   33 0.000000e+00 # gnhr2 
   34 0.000000e+00 # gnyuk2 

###################################
## INFORMATION FOR VLQPAR
###################################
Block vlqpar 
    1 -1.000000e-01 # gzvlqtl 
    2 -1.000000e-01 # gzvlqtr 
    3 -1.000000e-01 # gzvlqbl 
    4 -1.000000e-01 # gzvlqbr 
    5 -1.000000e-01 # gzvlqt0l 
    6 -1.000000e-01 # gzvlqt0r 
    7 -1.000000e-01 # gzvlqb0l 
    8 -1.000000e-01 # gzvlqb0r 
    9 -1.000000e-01 # gwvlqtl 
   10 -1.000000e-01 # gwvlqtr 
   11 -1.000000e-01 # gwvlqbl 
   12 -1.000000e-01 # gwvlqbr 
   13 -1.000000e-01 # gwvlq0l 
   14 -1.000000e-01 # gwvlq0r 
   15 -1.000000e-01 # ghvlqtl 
   16 -1.000000e-01 # ghvlqtr 
   17 -1.000000e-01 # ghvlqbl 
   18 -1.000000e-01 # ghvlqbr 
   19 -1.000000e-01 # ghvlqt0 
   20 -1.000000e-01 # ghvlqb0 
   21 -1.000000e-01 # gh2vlqtl 
   22 -1.000000e-01 # gh2vlqtr 
   23 -1.000000e-01 # gh2vlqbl 
   24 -1.000000e-01 # gh2vlqbr 
   25 -1.000000e-01 # gh2vlqt0 
   26 -1.000000e-01 # gh2vlqb0 
   27 -1.000000e-01 # gHpvlqtl 
   28 -1.000000e-01 # gHmvlqtr 
   29 -1.000000e-01 # gHmvlqbl 
   30 -1.000000e-01 # gHpvlqbr 
   31 0.000000e+00 # gAvlqtl 
   32 0.000000e+00 # gAvlqbl 
   33 0.000000e+00 # gAvlqtr 
   34 0.000000e+00 # gAvlqbr 
   35 0.000000e+00 # gAvlqt0 
   36 0.000000e+00 # gAvlqb0 

###################################
## INFORMATION FOR YUKAWA
###################################
Block yukawa 
    1 5.040000e-03 # ymdo 
    2 2.550000e-03 # ymup 
    3 1.010000e-01 # yms 
    4 1.270000e+00 # ymc 
    5 4.700000e+00 # ymb 
    6 1.720000e+02 # ymt 
   11 5.110000e-04 # yme 
   13 1.056600e-01 # ymm 
   15 1.777000e+00 # ymtau 

###################################
## INFORMATION FOR DECAY
###################################
DECAY   6 2.000000e+00 # WT 
DECAY   7 1.000000e+00 # Wvlqb 
DECAY   8 1.000000e+00 # Wvlqt 
DECAY  23 2.495200e+00 # WZ 
DECAY  24 2.085000e+00 # WW 
DECAY  25 4.070000e-03 # WH01 
DECAY  35 4.070000e-03 # WH02 
DECAY  36 1.000000e-03 # WA0 
DECAY  37 6.794858e-03 # WH 
DECAY 5000017 1.000000e+00 # Wne 
DECAY 5000018 1.000000e+00 # Wnnv 
DECAY 6000017 3.080000e-03 # Wnl 
DECAY 6000018 1.000000e+00 # Wnv 
## Dependent parameters, given by model restrictions.
## Those values should be edited following the 
## analytical expression. MG5 ignores those values 
## but they are important for interfacing the output of MG5
## to external program such as Pythia.
DECAY  1 0.000000e+00 # d : 0.0 
DECAY  2 0.000000e+00 # u : 0.0 
DECAY  3 0.000000e+00 # s : 0.0 
DECAY  4 0.000000e+00 # c : 0.0 
DECAY  5 0.000000e+00 # b : 0.0 
DECAY  11 0.000000e+00 # e- : 0.0 
DECAY  12 0.000000e+00 # ve : 0.0 
DECAY  13 0.000000e+00 # mu- : 0.0 
DECAY  14 0.000000e+00 # vm : 0.0 
DECAY  15 0.000000e+00 # ta- : 0.0 
DECAY  16 0.000000e+00 # vt : 0.0 
DECAY  21 0.000000e+00 # g : 0.0 
DECAY  22 0.000000e+00 # a : 0.0 
#===========================================================
# QUANTUM NUMBERS OF NEW STATE(S) (NON SM PDG CODE)
#===========================================================

Block QNUMBERS 6000018  # nv 
        1 0  # 3 times electric charge
        2 2  # number of spin states (2S+1)
        3 1  # colour rep (1: singlet, 3: triplet, 8: octet)
        4 1  # Particle/Antiparticle distinction (0=own anti)
Block QNUMBERS 6000017  # nl- 
        1 -3  # 3 times electric charge
        2 2  # number of spin states (2S+1)
        3 1  # colour rep (1: singlet, 3: triplet, 8: octet)
        4 1  # Particle/Antiparticle distinction (0=own anti)
Block QNUMBERS 5000018  # nnv 
        1 0  # 3 times electric charge
        2 2  # number of spin states (2S+1)
        3 1  # colour rep (1: singlet, 3: triplet, 8: octet)
        4 1  # Particle/Antiparticle distinction (0=own anti)
Block QNUMBERS 5000017  # ne- 
        1 -3  # 3 times electric charge
        2 2  # number of spin states (2S+1)
        3 1  # colour rep (1: singlet, 3: triplet, 8: octet)
        4 1  # Particle/Antiparticle distinction (0=own anti)
Block QNUMBERS 8  # vlqt 
        1 2  # 3 times electric charge
        2 2  # number of spin states (2S+1)
        3 3  # colour rep (1: singlet, 3: triplet, 8: octet)
        4 1  # Particle/Antiparticle distinction (0=own anti)
Block QNUMBERS 7  # vlqb 
        1 -1  # 3 times electric charge
        2 2  # number of spin states (2S+1)
        3 3  # colour rep (1: singlet, 3: triplet, 8: octet)
        4 1  # Particle/Antiparticle distinction (0=own anti)
Block QNUMBERS 35  # h02 
        1 0  # 3 times electric charge
        2 1  # number of spin states (2S+1)
        3 1  # colour rep (1: singlet, 3: triplet, 8: octet)
        4 0  # Particle/Antiparticle distinction (0=own anti)
Block QNUMBERS 36  # a0 
        1 0  # 3 times electric charge
        2 1  # number of spin states (2S+1)
        3 1  # colour rep (1: singlet, 3: triplet, 8: octet)
        4 0  # Particle/Antiparticle distinction (0=own anti)
Block QNUMBERS 37  # h+ 
        1 3  # 3 times electric charge
        2 1  # number of spin states (2S+1)
        3 1  # colour rep (1: singlet, 3: triplet, 8: octet)
        4 1  # Particle/Antiparticle distinction (0=own anti)
